Tidyverse | wilajeni's notebook
…
{ggplot2}
a. aesthetic up to 4 dimensions(x,y,color,size)
b. layers:
geom_point()-x,y,
geom_line()-x,y,
geom_col()-x,y,
geom_histogram(binwidth=,bins=)-x
geom_boxplot()-x,y. x is category(# of boxes), y is numerical obs.
C. scale_x_log10(), facet_wrap(~year), expand_limits(y=0)

Other Packages: forcats, tibble, readr, stringr, tidyr, purrr

gapminder

## # A tibble: 1,704 × 6
##    country     continent  year lifeExp      pop gdpPercap
##    <fct>       <fct>     <int>   <dbl>    <int>     <dbl>
##  1 Afghanistan Asia       1952    28.8  8425333      779.
##  2 Afghanistan Asia       1957    30.3  9240934      821.
##  3 Afghanistan Asia       1962    32.0 10267083      853.
##  4 Afghanistan Asia       1967    34.0 11537966      836.
##  5 Afghanistan Asia       1972    36.1 13079460      740.
##  6 Afghanistan Asia       1977    38.4 14880372      786.
##  7 Afghanistan Asia       1982    39.9 12881816      978.
##  8 Afghanistan Asia       1987    40.8 13867957      852.
##  9 Afghanistan Asia       1992    41.7 16317921      649.
## 10 Afghanistan Asia       1997    41.8 22227415      635.
## # … with 1,694 more rows
…
## [1] "tbl_df"     "tbl"        "data.frame"

  dplyr verbs
  #

  Pipe and filter
  #

pipe %>% is in package dplyr.
filter() is in package dplyr.

# Filter the gapminder dataset for the year 1957
gapminder %>% filter(year == 1957)

## # A tibble: 142 × 6
##    country     continent  year lifeExp      pop gdpPercap
##    <fct>       <fct>     <int>   <dbl>    <int>     <dbl>
##  1 Afghanistan Asia       1957    30.3  9240934      821.
##  2 Albania     Europe     1957    59.3  1476505     1942.
##  3 Algeria     Africa     1957    45.7 10270856     3014.
##  4 Angola      Africa     1957    32.0  4561361     3828.
##  5 Argentina   Americas   1957    64.4 19610538     6857.
##  6 Australia   Oceania    1957    70.3  9712569    10950.
##  7 Austria     Europe     1957    67.5  6965860     8843.
##  8 Bahrain     Asia       1957    53.8   138655    11636.
##  9 Bangladesh  Asia       1957    39.3 51365468      662.
## 10 Belgium     Europe     1957    69.2  8989111     9715.
## # … with 132 more rows
…
  arrange {dplyr}
  #

arrange(var) orders the rows of a data frame by the values of selected columns.
arrange(desc(var))

gapminder %>% arrange(desc(pop))

## # A tibble: 1,704 × 6
##    country continent  year lifeExp        pop gdpPercap
##    <fct>   <fct>     <int>   <dbl>      <int>     <dbl>
##  1 China   Asia       2007    73.0 1318683096     4959.
##  2 China   Asia       2002    72.0 1280400000     3119.
##  3 China   Asia       1997    70.4 1230075000     2289.
##  4 China   Asia       1992    68.7 1164970000     1656.
##  5 India   Asia       2007    64.7 1110396331     2452.
##  6 China   Asia       1987    67.3 1084035000     1379.
##  7 India   Asia       2002    62.9 1034172547     1747.
##  8 China   Asia       1982    65.5 1000281000      962.
##  9 India   Asia       1997    61.8  959000000     1459.
## 10 China   Asia       1977    64.0  943455000      741.
## # … with 1,694 more rows

gapminder %>% filter(year==2007) %>% arrange(desc(gdpPercap))

## # A tibble: 142 × 6
##    country          continent  year lifeExp       pop gdpPercap
##    <fct>            <fct>     <int>   <dbl>     <int>     <dbl>
##  1 Norway           Europe     2007    80.2   4627926    49357.
##  2 Kuwait           Asia       2007    77.6   2505559    47307.
##  3 Singapore        Asia       2007    80.0   4553009    47143.
##  4 United States    Americas   2007    78.2 301139947    42952.
##  5 Ireland          Europe     2007    78.9   4109086    40676.
##  6 Hong Kong, China Asia       2007    82.2   6980412    39725.
##  7 Switzerland      Europe     2007    81.7   7554661    37506.
##  8 Netherlands      Europe     2007    79.8  16570613    36798.
##  9 Canada           Americas   2007    80.7  33390141    36319.
## 10 Iceland          Europe     2007    81.8    301931    36181.
## # … with 132 more rows

  mutate {dplyr}
  #

mutate() creates new columns that are functions of existing variables. It can also modify (if the name is the same as an existing column) and delete columns (by setting their value to NULL).
group mutate vs summarize

gapminder %>% mutate(gdpinbil = pop * gdpPercap/1000000000)

## # A tibble: 1,704 × 7
##    country     continent  year lifeExp      pop gdpPercap gdpinbil
##    <fct>       <fct>     <int>   <dbl>    <int>     <dbl>    <dbl>
##  1 Afghanistan Asia       1952    28.8  8425333      779.     6.57
##  2 Afghanistan Asia       1957    30.3  9240934      821.     7.59
##  3 Afghanistan Asia       1962    32.0 10267083      853.     8.76
##  4 Afghanistan Asia       1967    34.0 11537966      836.     9.65
##  5 Afghanistan Asia       1972    36.1 13079460      740.     9.68
##  6 Afghanistan Asia       1977    38.4 14880372      786.    11.7 
##  7 Afghanistan Asia       1982    39.9 12881816      978.    12.6 
##  8 Afghanistan Asia       1987    40.8 13867957      852.    11.8 
##  9 Afghanistan Asia       1992    41.7 16317921      649.    10.6 
## 10 Afghanistan Asia       1997    41.8 22227415      635.    14.1 
## # … with 1,694 more rows

gapminder %>% mutate(gdp = pop * gdpPercap) %>% filter(year == 2007) %>% arrange(desc(gdp))

## # A tibble: 142 × 7
##    country        continent  year lifeExp        pop gdpPercap     gdp
##    <fct>          <fct>     <int>   <dbl>      <int>     <dbl>   <dbl>
##  1 United States  Americas   2007    78.2  301139947    42952. 1.29e13
##  2 China          Asia       2007    73.0 1318683096     4959. 6.54e12
##  3 Japan          Asia       2007    82.6  127467972    31656. 4.04e12
##  4 India          Asia       2007    64.7 1110396331     2452. 2.72e12
##  5 Germany        Europe     2007    79.4   82400996    32170. 2.65e12
##  6 United Kingdom Europe     2007    79.4   60776238    33203. 2.02e12
##  7 France         Europe     2007    80.7   61083916    30470. 1.86e12
##  8 Brazil         Americas   2007    72.4  190010647     9066. 1.72e12
##  9 Italy          Europe     2007    80.5   58147733    28570. 1.66e12
## 10 Mexico         Americas   2007    76.2  108700891    11978. 1.30e12
## # … with 132 more rows

# group mutate, group summarize value added to each row
gapminder %>% group_by(country,year) %>% mutate(avgle=mean(lifeExp))

## # A tibble: 1,704 × 7
## # Groups:   country, year [1,704]
##    country     continent  year lifeExp      pop gdpPercap avgle
##    <fct>       <fct>     <int>   <dbl>    <int>     <dbl> <dbl>
##  1 Afghanistan Asia       1952    28.8  8425333      779.  28.8
##  2 Afghanistan Asia       1957    30.3  9240934      821.  30.3
##  3 Afghanistan Asia       1962    32.0 10267083      853.  32.0
##  4 Afghanistan Asia       1967    34.0 11537966      836.  34.0
##  5 Afghanistan Asia       1972    36.1 13079460      740.  36.1
##  6 Afghanistan Asia       1977    38.4 14880372      786.  38.4
##  7 Afghanistan Asia       1982    39.9 12881816      978.  39.9
##  8 Afghanistan Asia       1987    40.8 13867957      852.  40.8
##  9 Afghanistan Asia       1992    41.7 16317921      649.  41.7
## 10 Afghanistan Asia       1997    41.8 22227415      635.  41.8
## # … with 1,694 more rows
…
Position: first(), last(), nth(),

Count: n(), n_distinct()no parameter passed

Logical: any(), all()
group_by() takes an existing tbl and converts it into a grouped tbl where operations are performed “by group”. ungroup() removes grouping.

gapminder %>% group_by(continent,country) %>%
  summarise(meanlife=mean(lifeExp),maxlife=max(lifeExp))

## `summarise()` has grouped output by 'continent'. You can override using the
## `.groups` argument.

## # A tibble: 142 × 4
## # Groups:   continent [5]
##    continent country                  meanlife maxlife
##    <fct>     <fct>                       <dbl>   <dbl>
##  1 Africa    Algeria                      59.0    72.3
##  2 Africa    Angola                       37.9    42.7
##  3 Africa    Benin                        48.8    56.7
##  4 Africa    Botswana                     54.6    63.6
##  5 Africa    Burkina Faso                 44.7    52.3
##  6 Africa    Burundi                      44.8    49.6
##  7 Africa    Cameroon                     48.1    55.0
##  8 Africa    Central African Republic     43.9    50.5
##  9 Africa    Chad                         46.8    51.7
## 10 Africa    Comoros                      52.4    65.2
## # … with 132 more rows
…
  select {dplyr}
  #

Select (and optionally rename) variables in a data frame, using a concise mini-language that makes it easy to refer to variables based on their name (e.g. a:f selects all columns from a on the left to f on the right) or type (e.g. where(is.numeric) selects all numeric columns).

gapminder %>% select(country:year)

## # A tibble: 1,704 × 3
##    country     continent  year
##    <fct>       <fct>     <int>
##  1 Afghanistan Asia       1952
##  2 Afghanistan Asia       1957
##  3 Afghanistan Asia       1962
##  4 Afghanistan Asia       1967
##  5 Afghanistan Asia       1972
##  6 Afghanistan Asia       1977
##  7 Afghanistan Asia       1982
##  8 Afghanistan Asia       1987
##  9 Afghanistan Asia       1992
## 10 Afghanistan Asia       1997
## # … with 1,694 more rows

gapminder %>% select(-(country:year))

## # A tibble: 1,704 × 3
##    lifeExp      pop gdpPercap
##      <dbl>    <int>     <dbl>
##  1    28.8  8425333      779.
##  2    30.3  9240934      821.
##  3    32.0 10267083      853.
##  4    34.0 11537966      836.
##  5    36.1 13079460      740.
##  6    38.4 14880372      786.
##  7    39.9 12881816      978.
##  8    40.8 13867957      852.
##  9    41.7 16317921      649.
## 10    41.8 22227415      635.
## # … with 1,694 more rows

gapminder %>% select(country,contains("e"))

## # A tibble: 1,704 × 5
##    country     continent  year lifeExp gdpPercap
##    <fct>       <fct>     <int>   <dbl>     <dbl>
##  1 Afghanistan Asia       1952    28.8      779.
##  2 Afghanistan Asia       1957    30.3      821.
##  3 Afghanistan Asia       1962    32.0      853.
##  4 Afghanistan Asia       1967    34.0      836.
##  5 Afghanistan Asia       1972    36.1      740.
##  6 Afghanistan Asia       1977    38.4      786.
##  7 Afghanistan Asia       1982    39.9      978.
##  8 Afghanistan Asia       1987    40.8      852.
##  9 Afghanistan Asia       1992    41.7      649.
## 10 Afghanistan Asia       1997    41.8      635.
## # … with 1,694 more rows

gapminder %>% select(starts_with("co"))

## # A tibble: 1,704 × 2
##    country     continent
##    <fct>       <fct>    
##  1 Afghanistan Asia     
##  2 Afghanistan Asia     
##  3 Afghanistan Asia     
##  4 Afghanistan Asia     
##  5 Afghanistan Asia     
##  6 Afghanistan Asia     
##  7 Afghanistan Asia     
##  8 Afghanistan Asia     
##  9 Afghanistan Asia     
## 10 Afghanistan Asia     
## # … with 1,694 more rows

  count {dplyr}
  #

count the unique values of one or more variables: df %>% count(a, b) is roughly equivalent to df %>% group_by(a, b) %>% summarise(n = n()). count() is paired with tally(), a lower-level helper that is equivalent to df %>% summarise(n = n()). Supply wt to perform weighted counts, switching the summary from n = n() to n = sum(wt).

gapminder %>% count(country)

## # A tibble: 142 × 2
##    country         n
##    <fct>       <int>
##  1 Afghanistan    12
##  2 Albania        12
##  3 Algeria        12
##  4 Angola         12
##  5 Argentina      12
##  6 Australia      12
##  7 Austria        12
##  8 Bahrain        12
##  9 Bangladesh     12
## 10 Belgium        12
## # … with 132 more rows

gapminder %>% count(country,wt = pop,sort = TRUE)

## # A tibble: 142 × 2
##    country                 n
##    <fct>               <dbl>
##  1 China         11497920623
##  2 India          8413568878
##  3 United States  2738534790
##  4 Indonesia      1779874000
##  5 Brazil         1467745520
##  6 Japan          1341105696
##  7 Pakistan       1124200629
##  8 Bangladesh     1089064744
##  9 Germany         930564520
## 10 Nigeria         884496214
## # … with 132 more rows
…
